{"failedCount":0,"prefixedPath":"src\/test\/java\/com\/test\/api\/getrequest\/getRequest.feature","packageQualifiedName":"src.test.java.com.test.api.getrequest.getRequest","loopIndex":-1,"relativePath":"src\/test\/java\/com\/test\/api\/getrequest\/getRequest.feature","scenarioResults":[{"sectionIndex":0,"stepResults":[{"result":{"nanos":1153300,"millis":1.1533,"status":"passed"},"step":{"background":true,"line":4,"prefix":"Given","index":0,"text":"url 'https:\/\/reqres.in\/api'"},"stepLog":"15:18:24.907 karate.env system property was: null \n"},{"result":{"nanos":473700,"millis":0.4737,"status":"passed"},"step":{"line":7,"prefix":"And","index":0,"text":"path '\/users'"}},{"result":{"nanos":5194300,"millis":5.1943,"status":"passed"},"step":{"line":8,"prefix":"And","index":1,"text":"param page = 2"}},{"result":{"nanos":776074300,"millis":776.0743,"status":"passed"},"step":{"line":9,"prefix":"When","index":2,"text":"method GET"},"stepLog":"15:18:25.488 request:\n1 > GET https:\/\/reqres.in\/api\/users?page=2\n1 > Host: reqres.in\n1 > Connection: Keep-Alive\n1 > User-Agent: Apache-HttpClient\/4.5.13 (Java\/11.0.12)\n1 > Accept-Encoding: gzip,deflate\n\n\n15:18:25.691 response time in milliseconds: 201\n1 < 200\n1 < Date: Mon, 27 Mar 2023 13:18:24 GMT\n1 < Content-Type: application\/json; charset=utf-8\n1 < Transfer-Encoding: chunked\n1 < Connection: keep-alive\n1 < X-Powered-By: Express\n1 < Access-Control-Allow-Origin: *\n1 < Etag: W\/\"406-ut0vzoCuidvyMf8arZpMpJ6ZRDw\"\n1 < Via: 1.1 vegur\n1 < Cache-Control: max-age=14400\n1 < CF-Cache-Status: HIT\n1 < Age: 6779\n1 < Report-To: {\"endpoints\":[{\"url\":\"https:\\\/\\\/a.nel.cloudflare.com\\\/report\\\/v3?s=4D2%2FVtJm%2B9dMUKIHsPhvenF9k6QEDEq4jXSwvZkLgk%2FbBeBMCnSws2q6gym%2BuDWXWqE4RGEOD%2BWEapVyTOmsdGkUFFxeMHPLbAFQ0C6jdnXuSFOXTlh4f2%2Bwqw%3D%3D\"}],\"group\":\"cf-nel\",\"max_age\":604800}\n1 < NEL: {\"success_fraction\":0,\"report_to\":\"cf-nel\",\"max_age\":604800}\n1 < Vary: Accept-Encoding\n1 < Server: cloudflare\n1 < CF-RAY: 7ae7eb485da65d23-LIS\n{\"page\":2,\"per_page\":6,\"total\":12,\"total_pages\":2,\"data\":[{\"id\":7,\"email\":\"michael.lawson@reqres.in\",\"first_name\":\"Michael\",\"last_name\":\"Lawson\",\"avatar\":\"https:\/\/reqres.in\/img\/faces\/7-image.jpg\"},{\"id\":8,\"email\":\"lindsay.ferguson@reqres.in\",\"first_name\":\"Lindsay\",\"last_name\":\"Ferguson\",\"avatar\":\"https:\/\/reqres.in\/img\/faces\/8-image.jpg\"},{\"id\":9,\"email\":\"tobias.funke@reqres.in\",\"first_name\":\"Tobias\",\"last_name\":\"Funke\",\"avatar\":\"https:\/\/reqres.in\/img\/faces\/9-image.jpg\"},{\"id\":10,\"email\":\"byron.fields@reqres.in\",\"first_name\":\"Byron\",\"last_name\":\"Fields\",\"avatar\":\"https:\/\/reqres.in\/img\/faces\/10-image.jpg\"},{\"id\":11,\"email\":\"george.edwards@reqres.in\",\"first_name\":\"George\",\"last_name\":\"Edwards\",\"avatar\":\"https:\/\/reqres.in\/img\/faces\/11-image.jpg\"},{\"id\":12,\"email\":\"rachel.howell@reqres.in\",\"first_name\":\"Rachel\",\"last_name\":\"Howell\",\"avatar\":\"https:\/\/reqres.in\/img\/faces\/12-image.jpg\"}],\"support\":{\"url\":\"https:\/\/reqres.in\/#support-heading\",\"text\":\"To keep ReqRes free, contributions towards server costs are appreciated!\"}}\n\n"},{"result":{"nanos":20300,"millis":0.0203,"status":"passed"},"step":{"line":10,"prefix":"Then","index":3,"text":"status 200"}},{"result":{"nanos":42400800,"millis":42.4008,"status":"passed"},"step":{"comments":["#And print response"],"line":12,"prefix":"And","index":4,"text":"match response.data[0].email == 'michael.lawson@reqres.in'"}}],"executorName":"main","line":6,"name":"test get list users with JSON Data","description":"","durationMillis":825.3167,"startTime":1679923104737,"failed":false,"refId":"[1:6]","endTime":1679923105765,"exampleIndex":-1},{"sectionIndex":1,"stepResults":[{"result":{"nanos":426800,"millis":0.4268,"status":"passed"},"step":{"background":true,"line":4,"prefix":"Given","index":0,"text":"url 'https:\/\/reqres.in\/api'"},"stepLog":"15:18:25.772 karate.env system property was: null \n"},{"result":{"nanos":258300,"millis":0.2583,"status":"passed"},"step":{"line":15,"prefix":"And","index":0,"text":"path '\/users\/2'"}},{"result":{"nanos":85552300,"millis":85.5523,"status":"passed"},"step":{"line":16,"prefix":"When","index":1,"text":"method GET"},"stepLog":"15:18:25.775 request:\n1 > GET https:\/\/reqres.in\/api\/users\/2\n1 > Host: reqres.in\n1 > Connection: Keep-Alive\n1 > User-Agent: Apache-HttpClient\/4.5.13 (Java\/11.0.12)\n1 > Accept-Encoding: gzip,deflate\n\n\n15:18:25.859 response time in milliseconds: 84\n1 < 200\n1 < Date: Mon, 27 Mar 2023 13:18:24 GMT\n1 < Content-Type: application\/json; charset=utf-8\n1 < Transfer-Encoding: chunked\n1 < Connection: keep-alive\n1 < X-Powered-By: Express\n1 < Access-Control-Allow-Origin: *\n1 < Etag: W\/\"118-pbdwwFo9SKNhD3Lx5iHJyngpq00\"\n1 < Via: 1.1 vegur\n1 < Cache-Control: max-age=14400\n1 < CF-Cache-Status: HIT\n1 < Age: 903\n1 < Report-To: {\"endpoints\":[{\"url\":\"https:\\\/\\\/a.nel.cloudflare.com\\\/report\\\/v3?s=xCnsT2mn2jTK%2FlvMsCMj39c24ZQ713aq7q6fEmCbCfmn6iADVjo2wrPqbVaUGdHsAWRTES6mmpYfUQT16%2F2WPMfvzfiEsLJVyiE%2B24Hg%2BjfbYjvK%2BU6hAf%2BCPw%3D%3D\"}],\"group\":\"cf-nel\",\"max_age\":604800}\n1 < NEL: {\"success_fraction\":0,\"report_to\":\"cf-nel\",\"max_age\":604800}\n1 < Vary: Accept-Encoding\n1 < Server: cloudflare\n1 < CF-RAY: 7ae7eb495c56489b-LIS\n{\"data\":{\"id\":2,\"email\":\"janet.weaver@reqres.in\",\"first_name\":\"Janet\",\"last_name\":\"Weaver\",\"avatar\":\"https:\/\/reqres.in\/img\/faces\/2-image.jpg\"},\"support\":{\"url\":\"https:\/\/reqres.in\/#support-heading\",\"text\":\"To keep ReqRes free, contributions towards server costs are appreciated!\"}}\n\n"},{"result":{"nanos":10200,"millis":0.0102,"status":"passed"},"step":{"line":17,"prefix":"Then","index":2,"text":"status 200"}}],"executorName":"main","line":14,"name":"test get single user with JSON Data","description":"","durationMillis":86.2476,"startTime":1679923105770,"failed":false,"refId":"[2:14]","endTime":1679923105860,"exampleIndex":-1},{"sectionIndex":2,"stepResults":[{"result":{"nanos":192600,"millis":0.1926,"status":"passed"},"step":{"background":true,"line":4,"prefix":"Given","index":0,"text":"url 'https:\/\/reqres.in\/api'"},"stepLog":"15:18:25.866 karate.env system property was: null \n"},{"result":{"nanos":443500,"millis":0.4435,"status":"passed"},"step":{"line":20,"prefix":"And","index":0,"text":"path '\/users\/23'"}},{"result":{"nanos":56985500,"millis":56.9855,"status":"passed"},"step":{"line":21,"prefix":"When","index":1,"text":"method GET"},"stepLog":"15:18:25.869 request:\n1 > GET https:\/\/reqres.in\/api\/users\/23\n1 > Host: reqres.in\n1 > Connection: Keep-Alive\n1 > User-Agent: Apache-HttpClient\/4.5.13 (Java\/11.0.12)\n1 > Accept-Encoding: gzip,deflate\n\n\n15:18:25.924 response time in milliseconds: 54\n1 < 404\n1 < Date: Mon, 27 Mar 2023 13:18:24 GMT\n1 < Content-Type: application\/json; charset=utf-8\n1 < Content-Length: 2\n1 < Connection: keep-alive\n1 < X-Powered-By: Express\n1 < Access-Control-Allow-Origin: *\n1 < Etag: W\/\"2-vyGp6PvFo4RvsFtPoIWeCReyIC8\"\n1 < Via: 1.1 vegur\n1 < Cache-Control: max-age=14400\n1 < CF-Cache-Status: HIT\n1 < Age: 136\n1 < Report-To: {\"endpoints\":[{\"url\":\"https:\\\/\\\/a.nel.cloudflare.com\\\/report\\\/v3?s=vhu3j9BcD%2BzPXQlZvbM73QVO1rhvI67wLirX427MLMGNYhdfboUzlAMqa7iAfMyA%2BusvgAeWISBaD0URighYd4PMPD2%2B0iWBJq7cUiJxDr%2F8PsooN1x0pn9y8g%3D%3D\"}],\"group\":\"cf-nel\",\"max_age\":604800}\n1 < NEL: {\"success_fraction\":0,\"report_to\":\"cf-nel\",\"max_age\":604800}\n1 < Vary: Accept-Encoding\n1 < Server: cloudflare\n1 < CF-RAY: 7ae7eb49daa3da66-LIS\n{}\n\n"},{"result":{"nanos":8300,"millis":0.0083,"status":"passed"},"step":{"line":22,"prefix":"Then","index":2,"text":"status 404"}}],"executorName":"main","line":19,"name":"test get single user Not found with JSON Data","description":"","durationMillis":57.6299,"startTime":1679923105865,"failed":false,"refId":"[3:19]","endTime":1679923105925,"exampleIndex":-1}],"callDepth":0,"name":"test get endPoints","description":"","resultDate":"2023-03-27 03:18:25 PM","durationMillis":969.1942,"passedCount":3}