{"failedCount":0,"prefixedPath":"src\/test\/java\/com\/test\/api\/getrequest\/getRequest.feature","packageQualifiedName":"src.test.java.com.test.api.getrequest.getRequest","loopIndex":-1,"relativePath":"src\/test\/java\/com\/test\/api\/getrequest\/getRequest.feature","scenarioResults":[{"sectionIndex":0,"stepResults":[{"result":{"nanos":818500,"millis":0.8185,"status":"passed"},"step":{"background":true,"line":4,"prefix":"Given","index":0,"text":"url 'https:\/\/reqres.in\/api'"},"stepLog":"15:03:20.652 karate.env system property was: null \n"},{"result":{"nanos":429000,"millis":0.429,"status":"passed"},"step":{"line":7,"prefix":"And","index":0,"text":"path '\/users'"}},{"result":{"nanos":4271000,"millis":4.271,"status":"passed"},"step":{"line":8,"prefix":"And","index":1,"text":"param page = 2"}},{"result":{"nanos":1793004700,"millis":1793.0047,"status":"passed"},"step":{"line":9,"prefix":"When","index":2,"text":"method GET"},"stepLog":"15:03:21.841 request:\n1 > GET https:\/\/reqres.in\/api\/users?page=2\n1 > Host: reqres.in\n1 > Connection: Keep-Alive\n1 > User-Agent: Apache-HttpClient\/4.5.13 (Java\/11.0.12)\n1 > Accept-Encoding: gzip,deflate\n\n\n15:03:22.443 response time in milliseconds: 600\n1 < 200\n1 < Date: Mon, 27 Mar 2023 13:03:20 GMT\n1 < Content-Type: application\/json; charset=utf-8\n1 < Transfer-Encoding: chunked\n1 < Connection: keep-alive\n1 < X-Powered-By: Express\n1 < Access-Control-Allow-Origin: *\n1 < Etag: W\/\"406-ut0vzoCuidvyMf8arZpMpJ6ZRDw\"\n1 < Via: 1.1 vegur\n1 < Cache-Control: max-age=14400\n1 < CF-Cache-Status: HIT\n1 < Age: 5875\n1 < Report-To: {\"endpoints\":[{\"url\":\"https:\\\/\\\/a.nel.cloudflare.com\\\/report\\\/v3?s=x4x84A7pYKPZBwn9RkeaX%2BYj0D%2Bv9mBUI8WK79wQm6DIgyba6hTKKj11dBNyBdR4Qf5hNKcp1KcY7Mik1JOMSeqtF2X9WafmmKdqoa0GBb%2FtxGPJ3DR%2B%2FQD17A%3D%3D\"}],\"group\":\"cf-nel\",\"max_age\":604800}\n1 < NEL: {\"success_fraction\":0,\"report_to\":\"cf-nel\",\"max_age\":604800}\n1 < Vary: Accept-Encoding\n1 < Server: cloudflare\n1 < CF-RAY: 7ae7d53afae594f4-LIS\n{\"page\":2,\"per_page\":6,\"total\":12,\"total_pages\":2,\"data\":[{\"id\":7,\"email\":\"michael.lawson@reqres.in\",\"first_name\":\"Michael\",\"last_name\":\"Lawson\",\"avatar\":\"https:\/\/reqres.in\/img\/faces\/7-image.jpg\"},{\"id\":8,\"email\":\"lindsay.ferguson@reqres.in\",\"first_name\":\"Lindsay\",\"last_name\":\"Ferguson\",\"avatar\":\"https:\/\/reqres.in\/img\/faces\/8-image.jpg\"},{\"id\":9,\"email\":\"tobias.funke@reqres.in\",\"first_name\":\"Tobias\",\"last_name\":\"Funke\",\"avatar\":\"https:\/\/reqres.in\/img\/faces\/9-image.jpg\"},{\"id\":10,\"email\":\"byron.fields@reqres.in\",\"first_name\":\"Byron\",\"last_name\":\"Fields\",\"avatar\":\"https:\/\/reqres.in\/img\/faces\/10-image.jpg\"},{\"id\":11,\"email\":\"george.edwards@reqres.in\",\"first_name\":\"George\",\"last_name\":\"Edwards\",\"avatar\":\"https:\/\/reqres.in\/img\/faces\/11-image.jpg\"},{\"id\":12,\"email\":\"rachel.howell@reqres.in\",\"first_name\":\"Rachel\",\"last_name\":\"Howell\",\"avatar\":\"https:\/\/reqres.in\/img\/faces\/12-image.jpg\"}],\"support\":{\"url\":\"https:\/\/reqres.in\/#support-heading\",\"text\":\"To keep ReqRes free, contributions towards server costs are appreciated!\"}}\n\n"},{"result":{"nanos":59000,"millis":0.059,"status":"passed"},"step":{"line":10,"prefix":"Then","index":3,"text":"status 200"}}],"executorName":"main","line":6,"name":"test get list users with JSON Data","description":"","durationMillis":1798.5822,"startTime":1679922200371,"failed":false,"refId":"[1:6]","endTime":1679922202490,"exampleIndex":-1},{"sectionIndex":1,"stepResults":[{"result":{"nanos":422800,"millis":0.4228,"status":"passed"},"step":{"background":true,"line":4,"prefix":"Given","index":0,"text":"url 'https:\/\/reqres.in\/api'"},"stepLog":"15:03:22.496 karate.env system property was: null \n"},{"result":{"nanos":480900,"millis":0.4809,"status":"passed"},"step":{"line":13,"prefix":"And","index":0,"text":"path '\/users\/2'"}},{"result":{"nanos":152492300,"millis":152.4923,"status":"passed"},"step":{"line":14,"prefix":"When","index":1,"text":"method GET"},"stepLog":"15:03:22.500 request:\n1 > GET https:\/\/reqres.in\/api\/users\/2\n1 > Host: reqres.in\n1 > Connection: Keep-Alive\n1 > User-Agent: Apache-HttpClient\/4.5.13 (Java\/11.0.12)\n1 > Accept-Encoding: gzip,deflate\n\n\n15:03:22.648 response time in milliseconds: 147\n1 < 200\n1 < Date: Mon, 27 Mar 2023 13:03:21 GMT\n1 < Content-Type: application\/json; charset=utf-8\n1 < Transfer-Encoding: chunked\n1 < Connection: keep-alive\n1 < X-Powered-By: Express\n1 < Access-Control-Allow-Origin: *\n1 < Etag: W\/\"118-pbdwwFo9SKNhD3Lx5iHJyngpq00\"\n1 < Via: 1.1 vegur\n1 < Cache-Control: max-age=14400\n1 < CF-Cache-Status: REVALIDATED\n1 < Report-To: {\"endpoints\":[{\"url\":\"https:\\\/\\\/a.nel.cloudflare.com\\\/report\\\/v3?s=pPTSXq%2FcK%2FiHTo1WK4Wrt8ZijzoY8LuxwtH4niHIJQUcTDCP6M7%2FCzqAnJ%2BeqUVRtXDXcQjTGyOv8%2Fcz1t%2BG9RWO1ccT6X89p0U2k0E8ExeS%2F2zmO1pijpQNuA%3D%3D\"}],\"group\":\"cf-nel\",\"max_age\":604800}\n1 < NEL: {\"success_fraction\":0,\"report_to\":\"cf-nel\",\"max_age\":604800}\n1 < Vary: Accept-Encoding\n1 < Server: cloudflare\n1 < CF-RAY: 7ae7d53bcf2e03c2-LIS\n{\"data\":{\"id\":2,\"email\":\"janet.weaver@reqres.in\",\"first_name\":\"Janet\",\"last_name\":\"Weaver\",\"avatar\":\"https:\/\/reqres.in\/img\/faces\/2-image.jpg\"},\"support\":{\"url\":\"https:\/\/reqres.in\/#support-heading\",\"text\":\"To keep ReqRes free, contributions towards server costs are appreciated!\"}}\n\n"},{"result":{"nanos":27000,"millis":0.027,"status":"passed"},"step":{"line":15,"prefix":"Then","index":2,"text":"status 200"}}],"executorName":"main","line":12,"name":"test get single user with JSON Data","description":"","durationMillis":153.423,"startTime":1679922202495,"failed":false,"refId":"[2:12]","endTime":1679922202652,"exampleIndex":-1},{"sectionIndex":2,"stepResults":[{"result":{"nanos":439100,"millis":0.4391,"status":"passed"},"step":{"background":true,"line":4,"prefix":"Given","index":0,"text":"url 'https:\/\/reqres.in\/api'"},"stepLog":"15:03:22.662 karate.env system property was: null \n"},{"result":{"nanos":498800,"millis":0.4988,"status":"passed"},"step":{"line":18,"prefix":"And","index":0,"text":"path '\/users\/23'"}},{"result":{"nanos":164576500,"millis":164.5765,"status":"passed"},"step":{"line":19,"prefix":"When","index":1,"text":"method GET"},"stepLog":"15:03:22.666 request:\n1 > GET https:\/\/reqres.in\/api\/users\/23\n1 > Host: reqres.in\n1 > Connection: Keep-Alive\n1 > User-Agent: Apache-HttpClient\/4.5.13 (Java\/11.0.12)\n1 > Accept-Encoding: gzip,deflate\n\n\n15:03:22.829 response time in milliseconds: 163\n1 < 404\n1 < Date: Mon, 27 Mar 2023 13:03:21 GMT\n1 < Content-Type: application\/json; charset=utf-8\n1 < Content-Length: 2\n1 < Connection: keep-alive\n1 < X-Powered-By: Express\n1 < Access-Control-Allow-Origin: *\n1 < Etag: W\/\"2-vyGp6PvFo4RvsFtPoIWeCReyIC8\"\n1 < Via: 1.1 vegur\n1 < Cache-Control: max-age=14400\n1 < CF-Cache-Status: EXPIRED\n1 < Report-To: {\"endpoints\":[{\"url\":\"https:\\\/\\\/a.nel.cloudflare.com\\\/report\\\/v3?s=3XQcOOX1rhEFbDz%2B7NPiHxksK2GGVAN%2FZuxudjb3MUydLadMNUMHiZqxQeKoFdBSdCLwcQdcZ%2FPyiow2DyO1yA7QAblOFmng1vkXVxWglwWbeHUe1VYk3Zfayw%3D%3D\"}],\"group\":\"cf-nel\",\"max_age\":604800}\n1 < NEL: {\"success_fraction\":0,\"report_to\":\"cf-nel\",\"max_age\":604800}\n1 < Vary: Accept-Encoding\n1 < Server: cloudflare\n1 < CF-RAY: 7ae7d53ccb8bda7e-LIS\n{}\n\n"},{"result":{"nanos":11600,"millis":0.0116,"status":"passed"},"step":{"line":20,"prefix":"Then","index":2,"text":"status 404"}}],"executorName":"main","line":17,"name":"test get single user Not found with JSON Data","description":"","durationMillis":165.526,"startTime":1679922202661,"failed":false,"refId":"[3:17]","endTime":1679922202830,"exampleIndex":-1}],"callDepth":0,"name":"test get endPoints","description":"","resultDate":"2023-03-27 03:03:22 PM","durationMillis":2117.5312,"passedCount":3}