{"failedCount":0,"prefixedPath":"src\/test\/java\/com\/test\/api\/getrequest\/getRequest.feature","packageQualifiedName":"src.test.java.com.test.api.getrequest.getRequest","loopIndex":-1,"relativePath":"src\/test\/java\/com\/test\/api\/getrequest\/getRequest.feature","scenarioResults":[{"sectionIndex":0,"stepResults":[{"result":{"nanos":1056500,"millis":1.0565,"status":"passed"},"step":{"background":true,"line":4,"prefix":"Given","index":0,"text":"url 'https:\/\/reqres.in\/api'"},"stepLog":"16:36:38.618 karate.env system property was: null \n"},{"result":{"nanos":418100,"millis":0.4181,"status":"passed"},"step":{"line":7,"prefix":"And","index":0,"text":"path '\/users'"}},{"result":{"nanos":4267400,"millis":4.2674,"status":"passed"},"step":{"line":8,"prefix":"And","index":1,"text":"param page = 2"}},{"result":{"nanos":732206401,"millis":732.206401,"status":"passed"},"step":{"line":9,"prefix":"When","index":2,"text":"method GET"},"stepLog":"16:36:39.146 request:\n1 > GET https:\/\/reqres.in\/api\/users?page=2\n1 > Host: reqres.in\n1 > Connection: Keep-Alive\n1 > User-Agent: Apache-HttpClient\/4.5.13 (Java\/11.0.12)\n1 > Accept-Encoding: gzip,deflate\n\n\n16:36:39.359 response time in milliseconds: 211\n1 < 200\n1 < Date: Sat, 25 Mar 2023 14:36:39 GMT\n1 < Content-Type: application\/json; charset=utf-8\n1 < Transfer-Encoding: chunked\n1 < Connection: keep-alive\n1 < X-Powered-By: Express\n1 < Access-Control-Allow-Origin: *\n1 < Etag: W\/\"406-ut0vzoCuidvyMf8arZpMpJ6ZRDw\"\n1 < Via: 1.1 vegur\n1 < Cache-Control: max-age=14400\n1 < CF-Cache-Status: HIT\n1 < Age: 1820\n1 < Report-To: {\"endpoints\":[{\"url\":\"https:\\\/\\\/a.nel.cloudflare.com\\\/report\\\/v3?s=CG%2F8lsVB2GF4QlFvAceJNu1AJ53ZAz%2F5PuQi2G6p82c7t8qPvzsFOyD190DnGU%2FxZQw5D0yAcWHHiW4fuIsHQG6vYy0UpyOaK3VXhRZQmLrnuljSCsjXPeHcsA%3D%3D\"}],\"group\":\"cf-nel\",\"max_age\":604800}\n1 < NEL: {\"success_fraction\":0,\"report_to\":\"cf-nel\",\"max_age\":604800}\n1 < Vary: Accept-Encoding\n1 < Server: cloudflare\n1 < CF-RAY: 7ad7e32928e594ef-LIS\n{\"page\":2,\"per_page\":6,\"total\":12,\"total_pages\":2,\"data\":[{\"id\":7,\"email\":\"michael.lawson@reqres.in\",\"first_name\":\"Michael\",\"last_name\":\"Lawson\",\"avatar\":\"https:\/\/reqres.in\/img\/faces\/7-image.jpg\"},{\"id\":8,\"email\":\"lindsay.ferguson@reqres.in\",\"first_name\":\"Lindsay\",\"last_name\":\"Ferguson\",\"avatar\":\"https:\/\/reqres.in\/img\/faces\/8-image.jpg\"},{\"id\":9,\"email\":\"tobias.funke@reqres.in\",\"first_name\":\"Tobias\",\"last_name\":\"Funke\",\"avatar\":\"https:\/\/reqres.in\/img\/faces\/9-image.jpg\"},{\"id\":10,\"email\":\"byron.fields@reqres.in\",\"first_name\":\"Byron\",\"last_name\":\"Fields\",\"avatar\":\"https:\/\/reqres.in\/img\/faces\/10-image.jpg\"},{\"id\":11,\"email\":\"george.edwards@reqres.in\",\"first_name\":\"George\",\"last_name\":\"Edwards\",\"avatar\":\"https:\/\/reqres.in\/img\/faces\/11-image.jpg\"},{\"id\":12,\"email\":\"rachel.howell@reqres.in\",\"first_name\":\"Rachel\",\"last_name\":\"Howell\",\"avatar\":\"https:\/\/reqres.in\/img\/faces\/12-image.jpg\"}],\"support\":{\"url\":\"https:\/\/reqres.in\/#support-heading\",\"text\":\"To keep ReqRes free, contributions towards server costs are appreciated!\"}}\n\n"},{"result":{"nanos":19100,"millis":0.0191,"status":"passed"},"step":{"line":10,"prefix":"Then","index":3,"text":"status 200"}}],"executorName":"main","line":6,"name":"test get list users with JSON Data","description":"","durationMillis":737.967501,"startTime":1679754998451,"failed":false,"refId":"[1:6]","endTime":1679754999389,"exampleIndex":-1},{"sectionIndex":1,"stepResults":[{"result":{"nanos":384100,"millis":0.3841,"status":"passed"},"step":{"background":true,"line":4,"prefix":"Given","index":0,"text":"url 'https:\/\/reqres.in\/api'"},"stepLog":"16:36:39.395 karate.env system property was: null \n"},{"result":{"nanos":214200,"millis":0.2142,"status":"passed"},"step":{"line":13,"prefix":"And","index":0,"text":"path '\/users\/2'"}},{"result":{"nanos":57202600,"millis":57.2026,"status":"passed"},"step":{"line":14,"prefix":"When","index":1,"text":"method GET"},"stepLog":"16:36:39.397 request:\n1 > GET https:\/\/reqres.in\/api\/users\/2\n1 > Host: reqres.in\n1 > Connection: Keep-Alive\n1 > User-Agent: Apache-HttpClient\/4.5.13 (Java\/11.0.12)\n1 > Accept-Encoding: gzip,deflate\n\n\n16:36:39.452 response time in milliseconds: 55\n1 < 200\n1 < Date: Sat, 25 Mar 2023 14:36:39 GMT\n1 < Content-Type: application\/json; charset=utf-8\n1 < Transfer-Encoding: chunked\n1 < Connection: keep-alive\n1 < X-Powered-By: Express\n1 < Access-Control-Allow-Origin: *\n1 < Etag: W\/\"118-pbdwwFo9SKNhD3Lx5iHJyngpq00\"\n1 < Via: 1.1 vegur\n1 < Cache-Control: max-age=14400\n1 < CF-Cache-Status: HIT\n1 < Age: 1396\n1 < Report-To: {\"endpoints\":[{\"url\":\"https:\\\/\\\/a.nel.cloudflare.com\\\/report\\\/v3?s=FIXq2xrZzX4TEk7zmc%2FzlU8DsotpQA%2BoUzjiVOM1UdaOLQ1UlZUmo%2Fyrnppt8z%2FKxUJAE46WSfRn6jjJ5kS5rE6vo90USbvhigQA2DfFwaTGTnJnNKQrPC9E%2BA%3D%3D\"}],\"group\":\"cf-nel\",\"max_age\":604800}\n1 < NEL: {\"success_fraction\":0,\"report_to\":\"cf-nel\",\"max_age\":604800}\n1 < Vary: Accept-Encoding\n1 < Server: cloudflare\n1 < CF-RAY: 7ad7e329daec48a4-LIS\n{\"data\":{\"id\":2,\"email\":\"janet.weaver@reqres.in\",\"first_name\":\"Janet\",\"last_name\":\"Weaver\",\"avatar\":\"https:\/\/reqres.in\/img\/faces\/2-image.jpg\"},\"support\":{\"url\":\"https:\/\/reqres.in\/#support-heading\",\"text\":\"To keep ReqRes free, contributions towards server costs are appreciated!\"}}\n\n"},{"result":{"nanos":16300,"millis":0.0163,"status":"passed"},"step":{"line":15,"prefix":"Then","index":2,"text":"status 200"}}],"executorName":"main","line":12,"name":"test get single user with JSON Data","description":"","durationMillis":57.8172,"startTime":1679754999393,"failed":false,"refId":"[2:12]","endTime":1679754999453,"exampleIndex":-1},{"sectionIndex":2,"stepResults":[{"result":{"nanos":325899,"millis":0.325899,"status":"passed"},"step":{"background":true,"line":4,"prefix":"Given","index":0,"text":"url 'https:\/\/reqres.in\/api'"},"stepLog":"16:36:39.459 karate.env system property was: null \n"},{"result":{"nanos":403000,"millis":0.403,"status":"passed"},"step":{"line":18,"prefix":"And","index":0,"text":"path '\/users\/23'"}},{"result":{"nanos":53244700,"millis":53.2447,"status":"passed"},"step":{"line":19,"prefix":"When","index":1,"text":"method GET"},"stepLog":"16:36:39.462 request:\n1 > GET https:\/\/reqres.in\/api\/users\/23\n1 > Host: reqres.in\n1 > Connection: Keep-Alive\n1 > User-Agent: Apache-HttpClient\/4.5.13 (Java\/11.0.12)\n1 > Accept-Encoding: gzip,deflate\n\n\n16:36:39.515 response time in milliseconds: 51\n1 < 404\n1 < Date: Sat, 25 Mar 2023 14:36:39 GMT\n1 < Content-Type: application\/json; charset=utf-8\n1 < Content-Length: 2\n1 < Connection: keep-alive\n1 < X-Powered-By: Express\n1 < Access-Control-Allow-Origin: *\n1 < Etag: W\/\"2-vyGp6PvFo4RvsFtPoIWeCReyIC8\"\n1 < Via: 1.1 vegur\n1 < Cache-Control: max-age=14400\n1 < CF-Cache-Status: HIT\n1 < Age: 67\n1 < Report-To: {\"endpoints\":[{\"url\":\"https:\\\/\\\/a.nel.cloudflare.com\\\/report\\\/v3?s=O7QuMyW1qEcfVeATiygq7y2S3LseDLqq%2FkesGowUG5bLnOl2rgp0flhfPB9yElh6Zm3eMTnWLDn%2F6FvhbHkAFAGGHvGC%2BjUhasuoQQ%2FSPWwFlfn6xoG1fWOygw%3D%3D\"}],\"group\":\"cf-nel\",\"max_age\":604800}\n1 < NEL: {\"success_fraction\":0,\"report_to\":\"cf-nel\",\"max_age\":604800}\n1 < Vary: Accept-Encoding\n1 < Server: cloudflare\n1 < CF-RAY: 7ad7e32a3e2d03ca-LIS\n{}\n\n"},{"result":{"nanos":8600,"millis":0.0086,"status":"passed"},"step":{"line":20,"prefix":"Then","index":2,"text":"status 404"}}],"executorName":"main","line":17,"name":"test get single user Not found with JSON Data","description":"","durationMillis":53.982199,"startTime":1679754999458,"failed":false,"refId":"[3:17]","endTime":1679754999515,"exampleIndex":-1}],"callDepth":0,"name":"test get endPoints","description":"","resultDate":"2023-03-25 04:36:39 PM","durationMillis":849.7669,"passedCount":3}