{"failedCount":0,"prefixedPath":"src\/test\/java\/com\/test\/api\/getrequest\/getRequest.feature","packageQualifiedName":"src.test.java.com.test.api.getrequest.getRequest","loopIndex":-1,"relativePath":"src\/test\/java\/com\/test\/api\/getrequest\/getRequest.feature","scenarioResults":[{"sectionIndex":0,"stepResults":[{"result":{"nanos":790200,"millis":0.7902,"status":"passed"},"step":{"background":true,"line":4,"prefix":"Given","index":0,"text":"url 'https:\/\/reqres.in\/api'"},"stepLog":"16:32:31.037 karate.env system property was: null \n"},{"result":{"nanos":424900,"millis":0.4249,"status":"passed"},"step":{"line":8,"prefix":"And","index":0,"text":"path '\/users'"}},{"result":{"nanos":4980399,"millis":4.980399,"status":"passed"},"step":{"line":9,"prefix":"And","index":1,"text":"param page = 2"}},{"result":{"nanos":783075499,"millis":783.075499,"status":"passed"},"step":{"line":10,"prefix":"When","index":2,"text":"method GET"},"stepLog":"16:32:31.570 request:\n1 > GET https:\/\/reqres.in\/api\/users?page=2\n1 > Host: reqres.in\n1 > Connection: Keep-Alive\n1 > User-Agent: Apache-HttpClient\/4.5.13 (Java\/11.0.12)\n1 > Accept-Encoding: gzip,deflate\n\n\n16:32:31.828 response time in milliseconds: 256\n1 < 200\n1 < Date: Sat, 25 Mar 2023 14:32:31 GMT\n1 < Content-Type: application\/json; charset=utf-8\n1 < Transfer-Encoding: chunked\n1 < Connection: keep-alive\n1 < X-Powered-By: Express\n1 < Access-Control-Allow-Origin: *\n1 < Etag: W\/\"406-ut0vzoCuidvyMf8arZpMpJ6ZRDw\"\n1 < Via: 1.1 vegur\n1 < Cache-Control: max-age=14400\n1 < CF-Cache-Status: HIT\n1 < Age: 1572\n1 < Report-To: {\"endpoints\":[{\"url\":\"https:\\\/\\\/a.nel.cloudflare.com\\\/report\\\/v3?s=SYJwvOReRhE5hs3SyWLcz9ivY2JrRv11rbqt9ZD%2BezgPPr9A7gG6lXXyQ4Hl%2BcgqtszRY%2BOu4G9L1dETZDhZKr4lo5dS3byWG6DQAnxiZ59VzmZoQgEa0Wa50Q%3D%3D\"}],\"group\":\"cf-nel\",\"max_age\":604800}\n1 < NEL: {\"success_fraction\":0,\"report_to\":\"cf-nel\",\"max_age\":604800}\n1 < Vary: Accept-Encoding\n1 < Server: cloudflare\n1 < CF-RAY: 7ad7dd1e2c2b489e-LIS\n{\"page\":2,\"per_page\":6,\"total\":12,\"total_pages\":2,\"data\":[{\"id\":7,\"email\":\"michael.lawson@reqres.in\",\"first_name\":\"Michael\",\"last_name\":\"Lawson\",\"avatar\":\"https:\/\/reqres.in\/img\/faces\/7-image.jpg\"},{\"id\":8,\"email\":\"lindsay.ferguson@reqres.in\",\"first_name\":\"Lindsay\",\"last_name\":\"Ferguson\",\"avatar\":\"https:\/\/reqres.in\/img\/faces\/8-image.jpg\"},{\"id\":9,\"email\":\"tobias.funke@reqres.in\",\"first_name\":\"Tobias\",\"last_name\":\"Funke\",\"avatar\":\"https:\/\/reqres.in\/img\/faces\/9-image.jpg\"},{\"id\":10,\"email\":\"byron.fields@reqres.in\",\"first_name\":\"Byron\",\"last_name\":\"Fields\",\"avatar\":\"https:\/\/reqres.in\/img\/faces\/10-image.jpg\"},{\"id\":11,\"email\":\"george.edwards@reqres.in\",\"first_name\":\"George\",\"last_name\":\"Edwards\",\"avatar\":\"https:\/\/reqres.in\/img\/faces\/11-image.jpg\"},{\"id\":12,\"email\":\"rachel.howell@reqres.in\",\"first_name\":\"Rachel\",\"last_name\":\"Howell\",\"avatar\":\"https:\/\/reqres.in\/img\/faces\/12-image.jpg\"}],\"support\":{\"url\":\"https:\/\/reqres.in\/#support-heading\",\"text\":\"To keep ReqRes free, contributions towards server costs are appreciated!\"}}\n\n"},{"result":{"nanos":19199,"millis":0.019199,"status":"passed"},"step":{"line":11,"prefix":"Then","index":3,"text":"status 200"}}],"executorName":"main","line":7,"name":"test get list users with JSON Data","description":"","durationMillis":789.290197,"startTime":1679754750871,"failed":false,"refId":"[1:7]","endTime":1679754751858,"exampleIndex":-1},{"sectionIndex":1,"stepResults":[{"result":{"nanos":414800,"millis":0.4148,"status":"passed"},"step":{"background":true,"line":4,"prefix":"Given","index":0,"text":"url 'https:\/\/reqres.in\/api'"},"stepLog":"16:32:31.864 karate.env system property was: null \n"},{"result":{"nanos":269601,"millis":0.269601,"status":"passed"},"step":{"line":14,"prefix":"And","index":0,"text":"path '\/users\/2'"}},{"result":{"nanos":62752700,"millis":62.7527,"status":"passed"},"step":{"line":15,"prefix":"When","index":1,"text":"method GET"},"stepLog":"16:32:31.866 request:\n1 > GET https:\/\/reqres.in\/api\/users\/2\n1 > Host: reqres.in\n1 > Connection: Keep-Alive\n1 > User-Agent: Apache-HttpClient\/4.5.13 (Java\/11.0.12)\n1 > Accept-Encoding: gzip,deflate\n\n\n16:32:31.927 response time in milliseconds: 61\n1 < 200\n1 < Date: Sat, 25 Mar 2023 14:32:31 GMT\n1 < Content-Type: application\/json; charset=utf-8\n1 < Transfer-Encoding: chunked\n1 < Connection: keep-alive\n1 < X-Powered-By: Express\n1 < Access-Control-Allow-Origin: *\n1 < Etag: W\/\"118-pbdwwFo9SKNhD3Lx5iHJyngpq00\"\n1 < Via: 1.1 vegur\n1 < Cache-Control: max-age=14400\n1 < CF-Cache-Status: HIT\n1 < Age: 1148\n1 < Report-To: {\"endpoints\":[{\"url\":\"https:\\\/\\\/a.nel.cloudflare.com\\\/report\\\/v3?s=Rr9jS8Pl%2FwecozyOwoB08khIbHl3DTlOvAneYM7sZt9COT7UabG%2B5E%2BrqgJiOhcBGqEJWnwv75vu%2FCPP5qkeG7spbXKhCWAkswC0RIFgu8A5sBhHsA8FoR6DIg%3D%3D\"}],\"group\":\"cf-nel\",\"max_age\":604800}\n1 < NEL: {\"success_fraction\":0,\"report_to\":\"cf-nel\",\"max_age\":604800}\n1 < Vary: Accept-Encoding\n1 < Server: cloudflare\n1 < CF-RAY: 7ad7dd1eb9de48a3-LIS\n{\"data\":{\"id\":2,\"email\":\"janet.weaver@reqres.in\",\"first_name\":\"Janet\",\"last_name\":\"Weaver\",\"avatar\":\"https:\/\/reqres.in\/img\/faces\/2-image.jpg\"},\"support\":{\"url\":\"https:\/\/reqres.in\/#support-heading\",\"text\":\"To keep ReqRes free, contributions towards server costs are appreciated!\"}}\n\n"},{"result":{"nanos":8101,"millis":0.008101,"status":"passed"},"step":{"line":16,"prefix":"Then","index":2,"text":"status 200"}}],"executorName":"main","line":13,"name":"test get single user with JSON Data","description":"","durationMillis":63.445202,"startTime":1679754751862,"failed":false,"refId":"[2:13]","endTime":1679754751928,"exampleIndex":-1}],"callDepth":0,"name":"test get endPoints","description":"","resultDate":"2023-03-25 04:32:31 PM","durationMillis":852.735399,"passedCount":2}