{"failedCount":1,"prefixedPath":"src\/test\/java\/com\/test\/api\/getrequest\/getRequest.feature","packageQualifiedName":"src.test.java.com.test.api.getrequest.getRequest","loopIndex":-1,"relativePath":"src\/test\/java\/com\/test\/api\/getrequest\/getRequest.feature","scenarioResults":[{"sectionIndex":0,"stepResults":[{"result":{"nanos":1015200,"millis":1.0152,"status":"passed"},"step":{"background":true,"line":4,"prefix":"Given","index":0,"text":"url 'https:\/\/reqres.in\/api'"},"stepLog":"15:18:50.859 karate.env system property was: null \n"},{"result":{"nanos":470700,"millis":0.4707,"status":"passed"},"step":{"line":7,"prefix":"And","index":0,"text":"path '\/users'"}},{"result":{"nanos":4227500,"millis":4.2275,"status":"passed"},"step":{"line":8,"prefix":"And","index":1,"text":"param page = 2"}},{"result":{"nanos":758721200,"millis":758.7212,"status":"passed"},"step":{"line":9,"prefix":"When","index":2,"text":"method GET"},"stepLog":"15:18:51.432 request:\n1 > GET https:\/\/reqres.in\/api\/users?page=2\n1 > Host: reqres.in\n1 > Connection: Keep-Alive\n1 > User-Agent: Apache-HttpClient\/4.5.13 (Java\/11.0.12)\n1 > Accept-Encoding: gzip,deflate\n\n\n15:18:51.619 response time in milliseconds: 185\n1 < 200\n1 < Date: Mon, 27 Mar 2023 13:18:49 GMT\n1 < Content-Type: application\/json; charset=utf-8\n1 < Transfer-Encoding: chunked\n1 < Connection: keep-alive\n1 < X-Powered-By: Express\n1 < Access-Control-Allow-Origin: *\n1 < Etag: W\/\"406-ut0vzoCuidvyMf8arZpMpJ6ZRDw\"\n1 < Via: 1.1 vegur\n1 < Cache-Control: max-age=14400\n1 < CF-Cache-Status: HIT\n1 < Age: 6804\n1 < Report-To: {\"endpoints\":[{\"url\":\"https:\\\/\\\/a.nel.cloudflare.com\\\/report\\\/v3?s=zNsKolL1qVpzNvcEqNzdHHbmhYAgxfiflhaxvozqUb0OMg29OqW7W0JeLWYLqC4n2fjPEA0KxIx4tanFcR4Ain8uKlUBLMyXEGc5pLHJaTLcurJOSTHyx8GsWA%3D%3D\"}],\"group\":\"cf-nel\",\"max_age\":604800}\n1 < NEL: {\"success_fraction\":0,\"report_to\":\"cf-nel\",\"max_age\":604800}\n1 < Vary: Accept-Encoding\n1 < Server: cloudflare\n1 < CF-RAY: 7ae7ebea683b9506-LIS\n{\"page\":2,\"per_page\":6,\"total\":12,\"total_pages\":2,\"data\":[{\"id\":7,\"email\":\"michael.lawson@reqres.in\",\"first_name\":\"Michael\",\"last_name\":\"Lawson\",\"avatar\":\"https:\/\/reqres.in\/img\/faces\/7-image.jpg\"},{\"id\":8,\"email\":\"lindsay.ferguson@reqres.in\",\"first_name\":\"Lindsay\",\"last_name\":\"Ferguson\",\"avatar\":\"https:\/\/reqres.in\/img\/faces\/8-image.jpg\"},{\"id\":9,\"email\":\"tobias.funke@reqres.in\",\"first_name\":\"Tobias\",\"last_name\":\"Funke\",\"avatar\":\"https:\/\/reqres.in\/img\/faces\/9-image.jpg\"},{\"id\":10,\"email\":\"byron.fields@reqres.in\",\"first_name\":\"Byron\",\"last_name\":\"Fields\",\"avatar\":\"https:\/\/reqres.in\/img\/faces\/10-image.jpg\"},{\"id\":11,\"email\":\"george.edwards@reqres.in\",\"first_name\":\"George\",\"last_name\":\"Edwards\",\"avatar\":\"https:\/\/reqres.in\/img\/faces\/11-image.jpg\"},{\"id\":12,\"email\":\"rachel.howell@reqres.in\",\"first_name\":\"Rachel\",\"last_name\":\"Howell\",\"avatar\":\"https:\/\/reqres.in\/img\/faces\/12-image.jpg\"}],\"support\":{\"url\":\"https:\/\/reqres.in\/#support-heading\",\"text\":\"To keep ReqRes free, contributions towards server costs are appreciated!\"}}\n\n"},{"result":{"nanos":18800,"millis":0.0188,"status":"passed"},"step":{"line":10,"prefix":"Then","index":3,"text":"status 200"}},{"result":{"nanos":28256600,"errorMessage":"match failed: EQUALS\n  $ | not equal (STRING:STRING)\n  'michael.lawson@reqres.in'\n  'ettettetl.lawson@reqres.in'\n\nsrc\/test\/java\/com\/test\/api\/getrequest\/getRequest.feature:12","millis":28.2566,"status":"failed"},"step":{"comments":["#And print response"],"line":12,"prefix":"And","index":4,"text":"match response.data[0].email == 'ettettetl.lawson@reqres.in'"},"stepLog":"15:18:51.685 src\/test\/java\/com\/test\/api\/getrequest\/getRequest.feature:12\nAnd match response.data[0].email == 'ettettetl.lawson@reqres.in'\nmatch failed: EQUALS\n  $ | not equal (STRING:STRING)\n  'michael.lawson@reqres.in'\n  'ettettetl.lawson@reqres.in'\n\nsrc\/test\/java\/com\/test\/api\/getrequest\/getRequest.feature:12\n"}],"line":6,"description":"","durationMillis":792.71,"failed":true,"error":"match failed: EQUALS\n  $ | not equal (STRING:STRING)\n  'michael.lawson@reqres.in'\n  'ettettetl.lawson@reqres.in'\n\nsrc\/test\/java\/com\/test\/api\/getrequest\/getRequest.feature:12","executorName":"main","name":"test get list users with JSON Data","startTime":1679923130691,"refId":"[1:6]","endTime":1679923131685,"exampleIndex":-1},{"sectionIndex":1,"stepResults":[{"result":{"nanos":468300,"millis":0.4683,"status":"passed"},"step":{"background":true,"line":4,"prefix":"Given","index":0,"text":"url 'https:\/\/reqres.in\/api'"},"stepLog":"15:18:51.691 karate.env system property was: null \n"},{"result":{"nanos":235200,"millis":0.2352,"status":"passed"},"step":{"line":15,"prefix":"And","index":0,"text":"path '\/users\/2'"}},{"result":{"nanos":59389400,"millis":59.3894,"status":"passed"},"step":{"line":16,"prefix":"When","index":1,"text":"method GET"},"stepLog":"15:18:51.693 request:\n1 > GET https:\/\/reqres.in\/api\/users\/2\n1 > Host: reqres.in\n1 > Connection: Keep-Alive\n1 > User-Agent: Apache-HttpClient\/4.5.13 (Java\/11.0.12)\n1 > Accept-Encoding: gzip,deflate\n\n\n15:18:51.751 response time in milliseconds: 57\n1 < 200\n1 < Date: Mon, 27 Mar 2023 13:18:50 GMT\n1 < Content-Type: application\/json; charset=utf-8\n1 < Transfer-Encoding: chunked\n1 < Connection: keep-alive\n1 < X-Powered-By: Express\n1 < Access-Control-Allow-Origin: *\n1 < Etag: W\/\"118-pbdwwFo9SKNhD3Lx5iHJyngpq00\"\n1 < Via: 1.1 vegur\n1 < Cache-Control: max-age=14400\n1 < CF-Cache-Status: HIT\n1 < Age: 929\n1 < Report-To: {\"endpoints\":[{\"url\":\"https:\\\/\\\/a.nel.cloudflare.com\\\/report\\\/v3?s=1w7ym2KnSh%2Fhrp9Wbu5lAUCLrvvhwAsGe423f9D5ag2E5EdEHQmXPzFw10H2L%2FdUvRaS5lpNFFCqI8m9MeMM1bEatAQfiT%2BgwZMP3hTERYJJ7fh%2BfmhCQnZFHQ%3D%3D\"}],\"group\":\"cf-nel\",\"max_age\":604800}\n1 < NEL: {\"success_fraction\":0,\"report_to\":\"cf-nel\",\"max_age\":604800}\n1 < Vary: Accept-Encoding\n1 < Server: cloudflare\n1 < CF-RAY: 7ae7ebeb48344891-LIS\n{\"data\":{\"id\":2,\"email\":\"janet.weaver@reqres.in\",\"first_name\":\"Janet\",\"last_name\":\"Weaver\",\"avatar\":\"https:\/\/reqres.in\/img\/faces\/2-image.jpg\"},\"support\":{\"url\":\"https:\/\/reqres.in\/#support-heading\",\"text\":\"To keep ReqRes free, contributions towards server costs are appreciated!\"}}\n\n"},{"result":{"nanos":11000,"millis":0.011,"status":"passed"},"step":{"line":17,"prefix":"Then","index":2,"text":"status 200"}}],"executorName":"main","line":14,"name":"test get single user with JSON Data","description":"","durationMillis":60.1039,"startTime":1679923131689,"failed":false,"refId":"[2:14]","endTime":1679923131751,"exampleIndex":-1},{"sectionIndex":2,"stepResults":[{"result":{"nanos":209100,"millis":0.2091,"status":"passed"},"step":{"background":true,"line":4,"prefix":"Given","index":0,"text":"url 'https:\/\/reqres.in\/api'"},"stepLog":"15:18:51.758 karate.env system property was: null \n"},{"result":{"nanos":404500,"millis":0.4045,"status":"passed"},"step":{"line":20,"prefix":"And","index":0,"text":"path '\/users\/23'"}},{"result":{"nanos":61766600,"millis":61.7666,"status":"passed"},"step":{"line":21,"prefix":"When","index":1,"text":"method GET"},"stepLog":"15:18:51.762 request:\n1 > GET https:\/\/reqres.in\/api\/users\/23\n1 > Host: reqres.in\n1 > Connection: Keep-Alive\n1 > User-Agent: Apache-HttpClient\/4.5.13 (Java\/11.0.12)\n1 > Accept-Encoding: gzip,deflate\n\n\n15:18:51.822 response time in milliseconds: 59\n1 < 404\n1 < Date: Mon, 27 Mar 2023 13:18:50 GMT\n1 < Content-Type: application\/json; charset=utf-8\n1 < Content-Length: 2\n1 < Connection: keep-alive\n1 < X-Powered-By: Express\n1 < Access-Control-Allow-Origin: *\n1 < Etag: W\/\"2-vyGp6PvFo4RvsFtPoIWeCReyIC8\"\n1 < Via: 1.1 vegur\n1 < Cache-Control: max-age=14400\n1 < CF-Cache-Status: HIT\n1 < Age: 162\n1 < Report-To: {\"endpoints\":[{\"url\":\"https:\\\/\\\/a.nel.cloudflare.com\\\/report\\\/v3?s=OLrPJjekwSI16hcMymhY7wm8ohdT6dVgKJbn7h16rkQHcIbfPYmxuc4NS%2Bb%2FDY1wQY56ekhPiVKZCxAyzdfbdWSe7lYwS9dy2SnNS8LWv8wJcQKys0x86OzhlQ%3D%3D\"}],\"group\":\"cf-nel\",\"max_age\":604800}\n1 < NEL: {\"success_fraction\":0,\"report_to\":\"cf-nel\",\"max_age\":604800}\n1 < Vary: Accept-Encoding\n1 < Server: cloudflare\n1 < CF-RAY: 7ae7ebebaeb103be-LIS\n{}\n\n"},{"result":{"nanos":11200,"millis":0.0112,"status":"passed"},"step":{"line":22,"prefix":"Then","index":2,"text":"status 404"}}],"executorName":"main","line":19,"name":"test get single user Not found with JSON Data","description":"","durationMillis":62.3914,"startTime":1679923131758,"failed":false,"refId":"[3:19]","endTime":1679923131822,"exampleIndex":-1}],"callDepth":0,"name":"test get endPoints","description":"","resultDate":"2023-03-27 03:18:51 PM","durationMillis":915.2053,"passedCount":2}